<svg version="1.1" id="Layer_1" xmlns="http://www.w3.org/2000/svg" xmlns:xlink="http://www.w3.org/1999/xlink" x="0px" y="0px"
     viewBox="0 0 1627.1 439.8" style="enable-background:new 0 0 1627.1 439.8;" xml:space="preserve">
<g>
	<path class="st0" d="M502,432.4h-58.8V269.6L307.3,7.4h64.3l102.8,210.3L577.3,7.4h60.6L502,268.9V432.4z"/>
    <path class="st0" d="M760.3,54.3v138.8h142V240h-142v145.6h175.1v46.9H702.1V7.4h228.3l-6.7,46.9H760.3z"/>
    <path class="st0" d="M1304.5,138.8c0,97.5-70.4,137.6-163.4,137.6h-53.3v156.1h-58.2V7.4h110.8C1242,7.4,1304.5,49.3,1304.5,138.8z
		 M1242.7,139.4c0-63.5-40.4-86.4-102.8-86.4h-52v177h50.8C1201,230.1,1242.7,211.6,1242.7,139.4z"/>
</g>
    <g>
	<polygon class="st0" points="134.4,178.3 170.8,56.1 206.8,178.3 262.9,178.3 208.7,7.4 135.3,7.4 80.9,178.3 	"/>
        <polygon class="st0" points="273,210.2 216.2,210.2 236.3,278.2 104.7,278.2 124.9,210.2 70.7,210.2 0,432.4 58.8,432.4
		90.6,325.7 250.4,325.7 282.2,432.4 343.4,432.4 	"/>
</g>
    <g>
	<path class="st0" d="M1473.5,48.7c4-0.4,8.1-0.6,12.2-0.6c3.2,0,6.3,0.1,9.4,0.3V0.3c-3.8-0.2-7.8-0.3-11.8-0.3
		c-3.3,0-6.6,0.1-9.8,0.3V48.7z"/>
        <path class="st0" d="M1519,52c21.3,5.3,41.2,16.3,61.5,34.3l33.1-37c-27.6-25-56-40.9-94.6-46.8V52z"/>
        <path class="st0" d="M1449.5,225.1v-59.8c-31.5-15.5-39.7-31.5-39.7-56.7c0-28,16-46.1,39.7-54.7V3.1
		c-59.5,11.3-99.1,52.5-99.1,108C1350.4,169.7,1384.3,201.1,1449.5,225.1z"/>
        <path class="st0" d="M1473.5,233.2c0.6,0.2,1.2,0.4,1.8,0.6c7.1,2.2,13.7,4.4,19.8,6.5v-57.5c-7.9-2.5-15-5-21.6-7.4V233.2z"/>
        <path class="st0" d="M1519,190.5v59.3c36.3,16.6,47.5,34.8,47.5,66c0,35.1-19.3,57.8-47.5,68.5v51.6
		c68.8-13.3,108.1-59.8,108.1-122C1627.1,239.4,1578.9,210.9,1519,190.5z"/>
        <path class="st0" d="M1449.5,389.7c-33.1-5.2-59.6-20.3-82.6-42.4l-33.7,37.6c29.5,29.2,68.3,48.3,116.2,53.5V389.7z"/>
        <path class="st0" d="M1495.1,390.4c-6.2,0.9-12.6,1.3-19.2,1.3c-0.8,0-1.6,0-2.4,0v48.1c1,0,2,0,3,0c6.4,0,12.5-0.2,18.5-0.7V390.4
		z"/>
</g>
</svg>
