<svg width="25" height="26" viewBox="0 0 25 26" fill="none" xmlns="http://www.w3.org/2000/svg">
<path d="M8.38302 13.5508H4.57617C4.30112 13.5508 4.07812 13.7827 4.07812 14.0688V17.2676C4.07812 17.5537 4.30112 17.7856 4.57617 17.7856H8.16646C8.17022 17.7856 8.17388 17.7855 8.17764 17.7855C9.01446 17.7659 10.012 17.3923 10.012 15.7233C10.012 14.0182 8.99034 13.5554 8.38302 13.5508ZM8.16065 16.7497H5.07422V14.5867H8.37926C8.52862 14.5888 9.01593 14.6768 9.01593 15.7233C9.01593 16.5765 8.74014 16.7352 8.16065 16.7497Z" fill="#343434"/>
<path d="M20.7512 11.87C20.3521 11.4528 19.8027 11.2412 19.1182 11.2412C17.943 11.2412 17.0315 11.9131 16.6175 13.0847C16.5613 13.2435 16.5834 13.4209 16.6766 13.5597C16.7697 13.6986 16.9222 13.7812 17.085 13.7812H20.8838C21.0326 13.7812 21.1736 13.712 21.2682 13.5926C21.3629 13.4732 21.4011 13.3159 21.3726 13.164C21.3039 12.7983 21.1403 12.2768 20.7512 11.87ZM17.9551 12.7454C18.2445 12.4341 18.6335 12.2771 19.1183 12.2771C19.5279 12.2771 19.8398 12.3859 20.045 12.6005C20.088 12.6455 20.1262 12.6943 20.1602 12.7454H17.9551Z" fill="#343434"/>
<path d="M4.57617 11.4708H8.12096C8.3735 11.4708 8.75523 11.4708 9.07086 11.1514C9.37096 10.8477 9.5108 10.3456 9.5108 9.57115C9.5108 7.99221 8.50875 7.90202 8.39449 7.89694C8.38741 7.89664 8.38028 7.89648 8.37315 7.89648L4.57617 7.89664C4.30112 7.89664 4.07812 8.12861 4.07812 8.41461V10.9529C4.07813 11.2389 4.30112 11.4708 4.57617 11.4708ZM5.07422 8.93247L8.34713 8.93232C8.40494 8.95218 8.51471 9.12641 8.51471 9.5711C8.51471 10.2492 8.39044 10.3945 8.37628 10.4088C8.35059 10.4348 8.2068 10.4348 8.12086 10.4348H5.07417V8.93247H5.07422Z" fill="#343434"/>
<path d="M23.4997 10.0931C22.462 8.86422 20.9688 8.24108 19.0616 8.24108C15.7478 8.24108 14.1672 10.0829 13.4246 11.6281C13.2524 11.9865 13.1178 12.3433 13.0127 12.6835C12.9204 12.5484 12.8208 12.422 12.714 12.3047C12.623 12.2046 12.5271 12.1113 12.4264 12.0251C12.9169 11.481 13.3426 10.635 13.3426 9.33816C13.3426 7.79934 12.8276 6.52173 11.8532 5.64346C10.9722 4.8494 9.77136 4.42969 8.38058 4.42969H0.885158C0.397071 4.42964 0 4.84264 0 5.35025V20.3321C0 20.8397 0.397071 21.2526 0.885158 21.2526H8.37077C8.38351 21.2529 8.40378 21.2532 8.43097 21.2532C8.79006 21.2532 10.057 21.2025 11.2832 20.55C11.9997 20.1689 12.8415 19.5021 13.3588 18.3578C13.5967 18.8429 13.8904 19.2808 14.2382 19.6684C15.364 20.9231 16.9797 21.5615 19.04 21.566C19.0764 21.5676 19.152 21.5703 19.2587 21.5703C19.7778 21.5703 21.1182 21.5048 22.3479 20.8977C24.0249 20.0703 24.8752 18.6813 24.8752 16.7694C24.8752 16.5878 24.8244 16.4183 24.7367 16.2755C24.8516 16.1414 24.9298 15.972 24.9535 15.7833C24.9713 15.6422 25.3651 12.3029 23.4997 10.0931ZM23.9766 15.549H17.0187C16.8766 15.549 16.7412 15.6121 16.6467 15.7225C16.5522 15.833 16.5076 15.9801 16.5241 16.1269C16.6184 16.9688 16.9934 17.6148 17.6085 17.9953C18.1843 18.3514 18.8134 18.3898 19.0572 18.3898C19.1069 18.3898 19.1391 18.3882 19.1495 18.3876C20.041 18.387 20.7288 18.1555 21.1388 17.7182C21.4572 17.3787 21.5409 17.0612 21.561 16.8846H23.8781C23.8458 18.3211 23.2047 19.3284 21.9212 19.9617C20.8742 20.4784 19.7105 20.5342 19.2588 20.5342C19.157 20.5342 19.0931 20.5314 19.0759 20.5306C19.068 20.5302 19.0602 20.53 19.0524 20.53C17.2735 20.5281 15.8988 20.0005 14.9665 18.9616C14.3954 18.3251 13.9991 17.5134 13.7885 16.5489C13.7367 16.3121 13.5343 16.1456 13.303 16.1456C13.2945 16.1456 13.2858 16.1459 13.2772 16.1463C13.0354 16.1592 12.8375 16.3511 12.8083 16.6012C12.6455 17.9977 11.9798 19.0159 10.8297 19.6277C9.80173 20.1748 8.73395 20.2173 8.43117 20.2173C8.41086 20.2173 8.39689 20.2171 8.38986 20.2169C8.38547 20.2168 8.38107 20.2167 8.37673 20.2167H0.996096V5.46553H8.38058C9.52829 5.46553 10.5035 5.79769 11.2008 6.42621C11.9503 7.1018 12.3465 8.10864 12.3465 9.33806C12.3465 10.3977 12.0008 11.1764 11.3189 11.6523C11.1707 11.7557 11.0871 11.9336 11.0996 12.1187C11.1121 12.3037 11.2189 12.4678 11.3795 12.5486C11.6064 12.6628 11.8119 12.8202 11.9904 13.0165C12.3123 13.3704 12.5497 13.8538 12.6959 14.4535C12.755 14.6958 12.9722 14.8594 13.2117 14.843C13.4515 14.8265 13.6456 14.6342 13.6734 14.386C13.7371 13.8165 13.9001 12.9561 14.3157 12.0912C14.9326 10.8074 16.2568 9.27707 19.0616 9.27707C20.6696 9.27707 21.9109 9.78164 22.7511 10.7766C24.1785 12.4674 24.0277 15.0063 23.9766 15.549ZM20.5867 16.5849C20.575 16.6461 20.5693 16.7088 20.57 16.7725C20.5631 16.7974 20.5337 16.8796 20.4255 16.995C20.2131 17.2217 19.7467 17.3517 19.1459 17.3517C19.1287 17.3517 19.1083 17.3523 19.0935 17.3533C19.0881 17.3536 19.0756 17.3539 19.0571 17.3539C18.9674 17.3539 18.5008 17.3419 18.1176 17.1049C17.9169 16.9808 17.7662 16.8088 17.6634 16.5849H20.5867Z" fill="#343434"/>
<path d="M21.9052 4.44531H15.9614C15.4733 4.44531 15.0762 4.83359 15.0762 5.31083V6.90283C15.0762 7.38007 15.4732 7.76839 15.9614 7.76839H21.9052C22.3934 7.76839 22.7904 7.38012 22.7904 6.90288V5.31083C22.7904 4.83359 22.3934 4.44531 21.9052 4.44531ZM21.7943 6.73245H16.0722V5.48125H21.7943V6.73245Z" fill="#343434"/>
</svg>
